hw2-02
…
# Let's load a data set from the diabetes data set
demographics <- readr::read_csv('https://raw.githubusercontent.com/rfordatascience/tidytuesday/master/data/2023/2023-09-05/demographics.csv')

Rows: 1327 Columns: 8
── Column specification ────────────────────────────────────────────────────────
Delimiter: ","
chr (1): facet
dbl (7): year, sample_size, employment, members, covered, p_members, p_covered

ℹ Use `spec()` to retrieve the full column specification for this data.
ℹ Specify the column types or set `show_col_types = FALSE` to quiet this message.

demographics

# A tibble: 1,327 × 8
    year sample_size employment members covered p_members p_covered facet       
   <dbl>       <dbl>      <dbl>   <dbl>   <dbl>     <dbl>     <dbl> <chr>       
 1  1973       49095     75519.  18089.     NA      0.240    NA     all wage an…
 2  1974       48245     77101.  18176.     NA      0.236    NA     all wage an…
 3  1975       46488     75704.  16778.     NA      0.222    NA     all wage an…
 4  1976       47648     78777.  17403.     NA      0.221    NA     all wage an…
 5  1977       57191     81334.  19335.  21535.     0.238     0.265 all wage an…
 6  1978       57321     84966.  19548.  21898.     0.230     0.258 all wage an…
 7  1979       58080     87117.  20986.  23540.     0.241     0.270 all wage an…
 8  1980       68594     87480.  20095.  22493.     0.230     0.257 all wage an…
 9  1981       15433     89538.  19137.  21453.     0.214     0.240 all wage an…
10  1983      173932     88290.  17717.  20532.     0.201     0.233 all wage an…
# ℹ 1,317 more rows
…
